dvl/srg/discovery/DiscoveryListener.class
dvl/srg/model/Metadates.class
dvl/srg/transport/TransportClient.class
dvl/srg/discovery/DiscoveryClient.class
dvl/srg/utils/Constants.class
dvl/srg/utils/ReadServerEmplyeesDatesHelper.class
dvl/srg/utils/TimerHelper.class
dvl/srg/bfs/BFS.class
dvl/srg/transport/TransportListener$1.class
dvl/srg/model/Employee.class
dvl/srg/transport/TransportListener.class
dvl/srg/utils/ReadAdjListHelper.class
dvl/srg/utils/ReadServerLocationDatesHelper.class
